amqp==5.0.6
billiard==3.6.4.0
cached-property==1.5.2
celery==5.1.2
click==7.1.2
click-didyoumean==0.3.0
click-plugins==1.1.1
click-repl==0.2.0
Django==2.2.14
django-celery-beat==2.2.1
django-celery-results==2.2.0
django-cors-headers==3.10.0
django-filter==2.4.0
django-mssql-backend==2.8.1
django-timezone-field==4.2.1
djangorestframework==3.12.4
djangorestframework-simplejwt==4.4.0
future==0.18.2
importlib-metadata==4.8.1
kombu==5.1.0
Markdown==3.3.4
prompt-toolkit==3.0.20
psycopg2==2.8.6
PyJWT==1.7.1
pyodbc==4.0.30
python-crontab==2.5.1
python-dateutil==2.8.2
pytz==2021.1
pyzk==0.9
redis==3.5.3
six==1.16.0
sqlparse==0.4.1
typing-extensions==3.10.0.2
Unipath==1.1
vine==5.0.0
wcwidth==0.2.5
zipp==3.5.0

